^C:\USERS\ARTEM\DOCUMENTS\VISUAL STUDIO 2013\PROJECTS\TEMEX\TEMEX\STDAFX.CPP
/c /ZI /nologo /W3 /WX- /sdl /Od /Oy- /D WIN32 /D _DEBUG /D _CONSOLE /D _LIB /D _UNICODE /D UNICODE /Gm /EHsc /RTC1 /MDd /GS /Zc:wchar_t /Zc:forScope /Yc"stdafx.h" /Fp"DEBUG\TEMEX.PCH" /Fo"DEBUG\\" /Fd"DEBUG\VC120.PDB" /Gd /TP /analyze- C:\USERS\ARTEM\DOCUMENTS\VISUAL STUDIO 2013\PROJECTS\TEMEX\TEMEX\STDAFX.CPP
^C:\USERS\ARTEM\DOCUMENTS\VISUAL STUDIO 2013\PROJECTS\TEMEX\TEMEX\TEMEX.CPP
/c /ZI /nologo /W3 /WX- /sdl /Od /Oy- /D WIN32 /D _DEBUG /D _CONSOLE /D _LIB /D _UNICODE /D UNICODE /Gm /EHsc /RTC1 /MDd /GS /Zc:wchar_t /Zc:forScope /Yu"stdafx.h" /Fp"DEBUG\TEMEX.PCH" /Fo"DEBUG\\" /Fd"DEBUG\VC120.PDB" /Gd /TP /analyze- C:\USERS\ARTEM\DOCUMENTS\VISUAL STUDIO 2013\PROJECTS\TEMEX\TEMEX\TEMEX.CPP
^C:\USERS\ARTEM\РАБОЧАЯ\РАБОТА\ЗАВОДЫ\GIT_FACT\TEMEX\TEMEX\STDAFX.CPP
/c /ZI /nologo /W3 /WX- /sdl /Od /Oy- /D WIN32 /D _DEBUG /D _CONSOLE /D _LIB /D _UNICODE /D UNICODE /Gm /EHsc /RTC1 /MDd /GS /Zc:wchar_t /Zc:forScope /Yc"stdafx.h" /Fp"DEBUG\TEMEX.PCH" /Fo"DEBUG\\" /Fd"DEBUG\VC120.PDB" /Gd /TP /analyze- C:\USERS\ARTEM\РАБОЧАЯ\РАБОТА\ЗАВОДЫ\GIT_FACT\TEMEX\TEMEX\STDAFX.CPP
^C:\USERS\ARTEM\РАБОЧАЯ\РАБОТА\ЗАВОДЫ\GIT_FACT\TEMEX\TEMEX\TEMEX.CPP
/c /ZI /nologo /W3 /WX- /sdl /Od /Oy- /D WIN32 /D _DEBUG /D _CONSOLE /D _LIB /D _UNICODE /D UNICODE /Gm /EHsc /RTC1 /MDd /GS /Zc:wchar_t /Zc:forScope /Yu"stdafx.h" /Fp"DEBUG\TEMEX.PCH" /Fo"DEBUG\\" /Fd"DEBUG\VC120.PDB" /Gd /TP /analyze- C:\USERS\ARTEM\РАБОЧАЯ\РАБОТА\ЗАВОДЫ\GIT_FACT\TEMEX\TEMEX\TEMEX.CPP
