^C:\USERS\ARTEM\DOCUMENTS\VISUAL STUDIO 2013\PROJECTS\TEMEX\TEMEX\STDAFX.CPP
C:\USERS\ARTEM\DOCUMENTS\VISUAL STUDIO 2013\PROJECTS\TEMEX\TEMEX\DEBUG\TEMEX.PCH
C:\USERS\ARTEM\DOCUMENTS\VISUAL STUDIO 2013\PROJECTS\TEMEX\TEMEX\DEBUG\VC120.PDB
C:\USERS\ARTEM\DOCUMENTS\VISUAL STUDIO 2013\PROJECTS\TEMEX\TEMEX\DEBUG\VC120.IDB
C:\USERS\ARTEM\DOCUMENTS\VISUAL STUDIO 2013\PROJECTS\TEMEX\TEMEX\DEBUG\STDAFX.OBJ
^C:\USERS\ARTEM\DOCUMENTS\VISUAL STUDIO 2013\PROJECTS\TEMEX\TEMEX\TEMEX.CPP
C:\USERS\ARTEM\DOCUMENTS\VISUAL STUDIO 2013\PROJECTS\TEMEX\TEMEX\DEBUG\VC120.PDB
C:\USERS\ARTEM\DOCUMENTS\VISUAL STUDIO 2013\PROJECTS\TEMEX\TEMEX\DEBUG\VC120.IDB
C:\USERS\ARTEM\DOCUMENTS\VISUAL STUDIO 2013\PROJECTS\TEMEX\TEMEX\DEBUG\TEMEX.OBJ
