^C:\USERS\ARTEM\DOCUMENTS\VISUAL STUDIO 2013\PROJECTS\TEMEX\TEMEX\DEBUG\STDAFX.OBJ|C:\USERS\ARTEM\DOCUMENTS\VISUAL STUDIO 2013\PROJECTS\TEMEX\TEMEX\DEBUG\TEMEX.OBJ
C:\USERS\ARTEM\DOCUMENTS\VISUAL STUDIO 2013\PROJECTS\TEMEX\DEBUG\TEMEX.ILK
C:\USERS\ARTEM\DOCUMENTS\VISUAL STUDIO 2013\PROJECTS\TEMEX\DEBUG\TEMEX.EXE
C:\USERS\ARTEM\DOCUMENTS\VISUAL STUDIO 2013\PROJECTS\TEMEX\DEBUG\TEMEX.PDB
